<svg xmlns="http://www.w3.org/2000/svg" width="1.2em" height="1.2em" viewBox="0 0 24 24"><style>
        path {
            fill: black;
        }
        @media (prefers-color-scheme: dark) {
            path { fill: white; }
        }
    </style><path fill="currentColor" d="M7 2h10v6h2v5h-2.5L13 17h-2l-3.5-4H5V8h2zm3 20H2v-2h8a1 1 0 0 0 1-1v-1h2v1a3 3 0 0 1-3 3"/></svg>